{
  "users": [],
  "streams": [
    {
      "userId": 0,
      "title": "general",
      "description": "General stream for all",
      "isPublic": true,
      "allowUserIds": [],
      "createdAt": 1480686302619,
      "id": 0
    }
  ],
  "messages": [],
  "events": []
}